<?xml version="1.0" encoding="utf-8"?>
<!-- Generator: Adobe Illustrator 18.1.1, SVG Export Plug-In . SVG Version: 6.00 Build 0)  -->
<svg version="1.1" id="Capa_1" xmlns="http://www.w3.org/2000/svg" xmlns:xlink="http://www.w3.org/1999/xlink" x="0px" y="0px"
	 viewBox="-93 15.2 451.8 451.8" enable-background="new -93 15.2 451.8 451.8" xml:space="preserve">
<g>
	<path d="M132.9,369.9c-8.1,0-16.2-3.1-22.4-9.3L-83.7,166.3c-12.4-12.4-12.4-32.4,0-44.8c12.4-12.4,32.4-12.4,44.7,0l171.9,171.9
		l171.9-171.9c12.4-12.4,32.4-12.4,44.7,0c12.4,12.4,12.4,32.4,0,44.8L155.3,360.6C149.1,366.8,141,369.9,132.9,369.9z"/>
</g>
</svg>
